hdl/artifacts/packetizer.vcd
$comment Generated by Amaranth $end
$date 2022-11-02 13:54:59.687036 $end
$timescale 1 ps $end
$scope module bench $end
$var wire 1 Y ce $end
$scope module top $end
$var wire 1 ! clk $end
$var wire 1 " rst $end
$var string 1 # state $end
$var wire 1 $ arm $end
$var wire 64 % w_data $end
$var wire 1 & w_en $end
$var wire 1 ' sync_in $end
$var wire 64 ( payload_count $end
$var wire 32 ) last_data $end
$var wire 1 * low_word $end
$var wire 11 + word_count $end
$var string 1 , fifo_state $end
$var wire 1 - r_en $end
$var wire 1 . tx_valid $end
$var wire 64 / tx_data $end
$var wire 11 0 fifo_drain_count $end
$var wire 1 1 tx_eof $end
$var wire 16 2 ch_b_in $end
$var wire 16 3 ch_a_in $end
$var wire 64 4 r_data $end
$scope module fifo $end
$var wire 1 ! clk $end
$var wire 1 " rst $end
$var wire 64 % w_data $end
$var wire 1 & w_en $end
$var wire 1 - r_en $end
$var wire 64 4 r_data $end
$var wire 64 5 w_data$1 $end
$var wire 1 6 w_en$1 $end
$var wire 1 7 w_rdy $end
$var wire 1 8 w_rdy$1 $end
$var wire 64 9 r_data$1 $end
$var wire 1 : r_en$1 $end
$var wire 1 ; r_rdy $end
$var wire 1 < r_rdy$1 $end
$var wire 4 = level $end
$var wire 4 > level$1 $end
$var wire 4 ? w_level $end
$var wire 4 @ r_level $end
$scope module unbuffered $end
$var wire 1 ! clk $end
$var wire 1 " rst $end
$var wire 64 5 w_data $end
$var wire 1 6 w_en $end
$var wire 1 8 w_rdy $end
$var wire 64 9 r_data $end
$var wire 1 : r_en $end
$var wire 1 ; r_rdy $end
$var wire 4 > level $end
$var wire 4 A w_level $end
$var wire 4 B r_level $end
$var wire 4 C storage_w_addr $end
$var wire 4 D produce $end
$var wire 64 E storage_w_data $end
$var wire 1 F storage_w_en $end
$var wire 4 G storage_r_addr $end
$var wire 4 H consume $end
$var wire 64 I storage_r_data $end
$var wire 1 J storage_r_en $end
$scope module r_port $end
$var wire 1 ! clk $end
$var wire 1 " rst $end
$var wire 4 G storage_r_addr $end
$var wire 64 I storage_r_data $end
$var wire 1 J storage_r_en $end
$var wire 64 K memory(0) $end
$var wire 64 L memory(1) $end
$var wire 64 M memory(2) $end
$var wire 64 N memory(3) $end
$var wire 64 O memory(4) $end
$var wire 64 P memory(5) $end
$var wire 64 Q memory(6) $end
$var wire 64 R memory(7) $end
$var wire 64 S memory(8) $end
$var wire 64 T memory(9) $end
$var wire 64 U memory(10) $end
$var wire 64 V memory(11) $end
$var wire 64 W memory(12) $end
$var wire 64 X memory(13) $end
$upscope $end
$scope module w_port $end
$var wire 1 ! clk $end
$var wire 1 " rst $end
$var wire 4 C storage_w_addr $end
$var wire 64 E storage_w_data $end
$var wire 1 F storage_w_en $end
$var wire 64 K memory(0) $end
$var wire 64 L memory(1) $end
$var wire 64 M memory(2) $end
$var wire 64 N memory(3) $end
$var wire 64 O memory(4) $end
$var wire 64 P memory(5) $end
$var wire 64 Q memory(6) $end
$var wire 64 R memory(7) $end
$var wire 64 S memory(8) $end
$var wire 64 T memory(9) $end
$var wire 64 U memory(10) $end
$var wire 64 V memory(11) $end
$var wire 64 W memory(12) $end
$var wire 64 X memory(13) $end
$upscope $end
$upscope $end
$upscope $end
$upscope $end
$upscope $end
$enddefinitions $end
#0
$dumpvars
0!
0"
sWaitArm/0 #
0$
b0 %
0&
0'
b0 (
b0 )
1*
b0 +
sLoading/0 ,
0-
0.
b0 /
b0 0
01
b0 2
b0 3
b0 4
b0 5
06
17
18
b0 9
0:
0;
0<
b0 =
b0 >
b0 ?
b0 @
b0 A
b0 B
b0 C
b0 D
b0 E
0F
b0 G
b0 H
b0 I
0J
b0 K
b0 L
b0 M
b0 N
b0 O
b0 P
b0 Q
b0 R
b0 S
b0 T
b0 U
b0 V
b0 W
b0 X
0Y
$end
#500000
1!
#1000000
0!
#1500000
1!
1$
#2000000
0!
#2500000
1!
sWaitSync/1 #
0$
#3000000
0!
#3500000
1'
1&
1F
1!
16
#4000000
0!
#4500000
b1 B
b1 @
b1 =
0F
b1 >
sRunning/2 #
b1 D
b1 2
1:
0'
0&
b1 A
1!
06
b1 ?
1J
b1 C
1;
#5000000
0!
#5500000
1F
b0 >
1<
b1 G
b1 )
1&
b0 A
1!
0*
b0 B
0;
b1 H
b100000000000000100000000000000011 5
b11 2
b100000000000000100000000000000011 %
b10 3
0:
b100000000000000100000000000000011 E
16
0J
#6000000
0!
#6500000
b10 @
0F
b1 >
b10 D
0&
b1 A
1!
1*
b1 B
1;
b10 =
b0 5
b101 2
b0 %
b100 3
b1 +
b100000000000000100000000000000011 L
b0 E
b10 C
06
b10 ?
#7000000
0!
#7500000
1F
b100000000000000010100000000000001100000000000000111 5
b111 2
b100000000000000010100000000000001100000000000000111 %
b110 3
b1000000000000000101 )
1&
b100000000000000010100000000000001100000000000000111 E
1!
16
0*
#8000000
0!
#8500000
b11 @
0F
b10 >
b11 D
b100000000000000010100000000000001100000000000000111 M
0&
b10 A
1!
1*
b10 B
b11 =
b0 5
b1001 2
b0 %
b1000 3
b10 +
b0 E
b11 C
06
b11 ?
#9000000
0!
#9500000
1F
b1000000000000000100100000000000010100000000000001011 5
b1011 2
b1000000000000000100100000000000010100000000000001011 %
b1010 3
b10000000000000001001 )
1&
b1000000000000000100100000000000010100000000000001011 E
1!
16
0*
#10000000
0!
#10500000
b100 @
0F
b11 >
b100 D
b1000000000000000100100000000000010100000000000001011 N
0&
b11 A
1!
1*
b11 B
b100 =
b0 5
b1101 2
b0 %
b1100 3
b11 +
b0 E
b100 C
06
b100 ?
#11000000
0!
#11500000
1F
b1100000000000000110100000000000011100000000000001111 5
b1111 2
b1100000000000000110100000000000011100000000000001111 %
b1110 3
b11000000000000001101 )
1&
b1100000000000000110100000000000011100000000000001111 E
1!
16
0*
#12000000
0!
#12500000
b1100000000000000110100000000000011100000000000001111 O
b101 =
b101 @
b100 >
b101 D
b1 5
b10001 2
b1 %
b10000 3
b100 +
b100 A
b1 E
1!
b101 ?
1*
b101 C
b100 B
#13000000
0!
#13500000
b110 @
b101 >
1-
b110 D
b100000000000000010001 )
b101 A
1!
0*
b101 B
b110 =
b1 (
b10000000000000001000100000000000100100000000000010011 5
b10011 2
b10000000000000001000100000000000100100000000000010011 %
b10010 3
b0 +
1:
b1 P
b10000000000000001000100000000000100100000000000010011 E
b110 C
sDraining/1 ,
b110 ?
1J
#14000000
0!
#14500000
0F
b111 D
b10 G
1.
b100000000000000100000000000000011 I
0&
1!
1*
b1 0
b10 H
b100000000000000100000000000000011 4
b0 5
b10101 2
b100000000000000100000000000000011 9
b0 %
b10100 3
b10000000000000001000100000000000100100000000000010011 Q
b1 +
b0 E
b111 C
06
#15000000
0!
#15500000
b101 @
1F
b100 >
b11 G
b100000000000000010100000000000001100000000000000111 I
b101000000000000010101 )
1&
b100 A
1!
b100000000000000100000000000000011 /
0*
b100 B
b101 =
b10 0
b11 H
b100000000000000010100000000000001100000000000000111 4
b10100000000000001010100000000000101100000000000010111 5
b10111 2
b100000000000000010100000000000001100000000000000111 9
b10100000000000001010100000000000101100000000000010111 %
b10110 3
b10100000000000001010100000000000101100000000000010111 E
16
b101 ?
#16000000
0!
#16500000
0F
b1000 D
b10100000000000001010100000000000101100000000000010111 R
b100 G
b1000000000000000100100000000000010100000000000001011 I
0&
1!
b100000000000000010100000000000001100000000000000111 /
1*
b11 0
b100 H
b1000000000000000100100000000000010100000000000001011 4
b0 5
b11001 2
b1000000000000000100100000000000010100000000000001011 9
b0 %
b11000 3
b10 +
b0 E
b1000 C
06
#17000000
0!
#17500000
b100 @
1F
b11 >
16
b101 G
b1100000000000000110100000000000011100000000000001111 I
b110000000000000011001 )
1&
b11 A
1!
b1000000000000000100100000000000010100000000000001011 /
0*
b11 B
b100 =
b100 0
b101 H
b1100000000000000110100000000000011100000000000001111 4
b11000000000000001100100000000000110100000000000011011 5
b11011 2
b1100000000000000110100000000000011100000000000001111 9
b11000000000000001100100000000000110100000000000011011 %
b11010 3
b11000000000000001100100000000000110100000000000011011 E
sEOF/2 ,
b100 ?
#18000000
0!
#18500000
0F
0-
b11000000000000001100100000000000110100000000000011011 S
b1001 D
06
b110 G
b1 I
0&
1!
b1100000000000000110100000000000011100000000000001111 /
1*
b0 0
b110 H
b1 4
b0 5
b11101 2
b1 9
b0 %
11
b11100 3
b11 +
0:
b0 E
b1001 C
sLoading/0 ,
0J
#19000000
0!
#19500000
1F
b11100000000000001110100000000000111100000000000011111 5
b11111 2
b11100000000000001110100000000000111100000000000011111 %
01
b11110 3
0.
b111000000000000011101 )
1&
b11100000000000001110100000000000111100000000000011111 E
1!
b0 /
16
0*
#20000000
0!
#20500000
b101 @
b101 =
b100 >
b1010 D
b10 5
b100001 2
b10 %
b100000 3
b11100000000000001110100000000000111100000000000011111 T
b100 +
b100 A
b10 E
1!
b101 ?
1*
b1010 C
b100 B
#21000000
0!
#21500000
b110 @
b101 >
1-
b1011 D
b1000000000000000100001 )
b101 A
b10 U
1!
0*
b101 B
b110 =
b10 (
b100000000000000010000100000000001000100000000000100011 5
b100011 2
b100000000000000010000100000000001000100000000000100011 %
b100010 3
b0 +
1:
b100000000000000010000100000000001000100000000000100011 E
b1011 C
sDraining/1 ,
b110 ?
1J
#22000000
0!
#22500000
0F
b1100 D
b111 G
1.
b10000000000000001000100000000000100100000000000010011 I
0&
1!
b1 /
1*
b100000000000000010000100000000001000100000000000100011 V
b1 0
b111 H
b10000000000000001000100000000000100100000000000010011 4
b0 5
b100101 2
b10000000000000001000100000000000100100000000000010011 9
b0 %
b100100 3
b1 +
b0 E
b1100 C
06
#23000000
0!
#23500000
b101 @
1F
b100 >
b1000 G
b10100000000000001010100000000000101100000000000010111 I
b1001000000000000100101 )
1&
b100 A
1!
b10000000000000001000100000000000100100000000000010011 /
0*
b100 B
b101 =
b10 0
b1000 H
b10100000000000001010100000000000101100000000000010111 4
b100100000000000010010100000000001001100000000000100111 5
b100111 2
b10100000000000001010100000000000101100000000000010111 9
b100100000000000010010100000000001001100000000000100111 %
b100110 3
b100100000000000010010100000000001001100000000000100111 E
16
b101 ?
#24000000
0!
#24500000
0F
b1101 D
b1001 G
b11000000000000001100100000000000110100000000000011011 I
0&
1!
b10100000000000001010100000000000101100000000000010111 /
1*
b11 0
b1001 H
b11000000000000001100100000000000110100000000000011011 4
b0 5
b101001 2
b11000000000000001100100000000000110100000000000011011 9
b0 %
b100100000000000010010100000000001001100000000000100111 W
b101000 3
b10 +
b0 E
b1101 C
06
#25000000
0!
#25500000
b100 @
1F
b11 >
16
b1010 G
b11100000000000001110100000000000111100000000000011111 I
b1010000000000000101001 )
1&
b11 A
1!
b11000000000000001100100000000000110100000000000011011 /
0*
b11 B
b100 =
b100 0
b1010 H
b11100000000000001110100000000000111100000000000011111 4
b101000000000000010100100000000001010100000000000101011 5
b101011 2
b11100000000000001110100000000000111100000000000011111 9
b101000000000000010100100000000001010100000000000101011 %
b101010 3
b101000000000000010100100000000001010100000000000101011 E
sEOF/2 ,
b100 ?
#26000000
0!
#26500000
0F
0-
b0 D
06
b1011 G
b10 I
0&
1!
b11100000000000001110100000000000111100000000000011111 /
1*
b0 0
b1011 H
b10 4
b0 5
b101101 2
b10 9
b0 %
11
b101100 3
b11 +
0:
b101000000000000010100100000000001010100000000000101011 X
b0 E
b0 C
sLoading/0 ,
0J
#27000000
0!
#27500000
1F
b101100000000000010110100000000001011100000000000101111 5
b101111 2
b101100000000000010110100000000001011100000000000101111 %
01
b101110 3
0.
b1011000000000000101101 )
1&
b101100000000000010110100000000001011100000000000101111 E
1!
b0 /
16
0*
#28000000
0!
#28500000
b101 @
b101 =
b100 >
b1 D
b11 5
b110001 2
b11 %
b110000 3
b100 +
b100 A
b11 E
1!
b101100000000000010110100000000001011100000000000101111 K
b101 ?
1*
b1 C
b100 B
#29000000
0!
#29500000
b110 @
b101 >
1-
b10 D
b1100000000000000110001 )
b101 A
1!
0*
b101 B
b110 =
b11 (
b110000000000000011000100000000001100100000000000110011 5
b110011 2
b110000000000000011000100000000001100100000000000110011 %
b110010 3
b0 +
1:
b11 L
b110000000000000011000100000000001100100000000000110011 E
b10 C
sDraining/1 ,
b110 ?
1J
#30000000
0!
#30500000
0F
b11 D
b110000000000000011000100000000001100100000000000110011 M
b1100 G
1.
b100000000000000010000100000000001000100000000000100011 I
0&
1!
b10 /
1*
b1 0
b1100 H
b100000000000000010000100000000001000100000000000100011 4
b0 5
b110101 2
b100000000000000010000100000000001000100000000000100011 9
b0 %
b110100 3
b1 +
b0 E
b11 C
06
#31000000
0!
#31500000
b101 @
1F
b100 >
b1101 G
b100100000000000010010100000000001001100000000000100111 I
b1101000000000000110101 )
1&
b100 A
1!
b100000000000000010000100000000001000100000000000100011 /
0*
b100 B
b101 =
b10 0
b1101 H
b100100000000000010010100000000001001100000000000100111 4
b110100000000000011010100000000001101100000000000110111 5
b110111 2
b100100000000000010010100000000001001100000000000100111 9
b110100000000000011010100000000001101100000000000110111 %
b110110 3
b110100000000000011010100000000001101100000000000110111 E
16
b101 ?
#32000000
0!
#32500000
0F
b100 D
b0 G
b101000000000000010100100000000001010100000000000101011 I
b110100000000000011010100000000001101100000000000110111 N
0&
1!
b100100000000000010010100000000001001100000000000100111 /
1*
b11 0
b0 H
b101000000000000010100100000000001010100000000000101011 4
b0 5
b111001 2
b101000000000000010100100000000001010100000000000101011 9
b0 %
b111000 3
b10 +
b0 E
b100 C
06
#33000000
0!
#33500000
b100 @
1F
b11 >
16
b1 G
b101100000000000010110100000000001011100000000000101111 I
b1110000000000000111001 )
1&
b11 A
1!
b101000000000000010100100000000001010100000000000101011 /
0*
b11 B
b100 =
b100 0
b1 H
b101100000000000010110100000000001011100000000000101111 4
b111000000000000011100100000000001110100000000000111011 5
b111011 2
b101100000000000010110100000000001011100000000000101111 9
b111000000000000011100100000000001110100000000000111011 %
b111010 3
b111000000000000011100100000000001110100000000000111011 E
sEOF/2 ,
b100 ?
#34000000
0!
#34500000
0F
0-
b101 D
06
b10 G
b11 I
0&
1!
b101100000000000010110100000000001011100000000000101111 /
1*
b111000000000000011100100000000001110100000000000111011 O
b0 0
b10 H
b11 4
b0 5
b111101 2
b11 9
b0 %
11
b111100 3
b11 +
0:
b0 E
b101 C
sLoading/0 ,
0J
#35000000
0!
#35500000
1F
b111100000000000011110100000000001111100000000000111111 5
b111111 2
b111100000000000011110100000000001111100000000000111111 %
01
b111110 3
0.
b1111000000000000111101 )
1&
b111100000000000011110100000000001111100000000000111111 E
1!
b0 /
16
0*
#36000000
0!
#36500000
b101 @
b101 =
b100 >
b110 D
b100 5
b1000001 2
b100 %
b1000000 3
b100 +
b111100000000000011110100000000001111100000000000111111 P
b100 A
b100 E
1!
b101 ?
1*
b110 C
b100 B
#37000000
0!
#37500000
b110 @
b101 >
1-
b111 D
b10000000000000001000001 )
b101 A
1!
0*
b101 B
b110 =
b100 (
b1000000000000000100000100000000010000100000000001000011 5
b1000011 2
b1000000000000000100000100000000010000100000000001000011 %
b1000010 3
b100 Q
b0 +
1:
b1000000000000000100000100000000010000100000000001000011 E
b111 C
sDraining/1 ,
b110 ?
1J
#38000000
0!
#38500000
0F
b1000 D
b1000000000000000100000100000000010000100000000001000011 R
b11 G
1.
b110000000000000011000100000000001100100000000000110011 I
0&
1!
b11 /
1*
b1 0
b11 H
b110000000000000011000100000000001100100000000000110011 4
b0 5
b1000101 2
b110000000000000011000100000000001100100000000000110011 9
b0 %
b1000100 3
b1 +
b0 E
b1000 C
06
#39000000
0!
#39500000
b101 @
1F
b100 >
b100 G
b110100000000000011010100000000001101100000000000110111 I
b10001000000000001000101 )
1&
b100 A
1!
b110000000000000011000100000000001100100000000000110011 /
0*
b100 B
b101 =
b10 0
b100 H
b110100000000000011010100000000001101100000000000110111 4
b1000100000000000100010100000000010001100000000001000111 5
b1000111 2
b110100000000000011010100000000001101100000000000110111 9
b1000100000000000100010100000000010001100000000001000111 %
b1000110 3
b1000100000000000100010100000000010001100000000001000111 E
16
b101 ?
#40000000
0!
#40500000
0F
b1000100000000000100010100000000010001100000000001000111 S
b1001 D
b101 G
b111000000000000011100100000000001110100000000000111011 I
0&
1!
b110100000000000011010100000000001101100000000000110111 /
1*
b11 0
b101 H
b111000000000000011100100000000001110100000000000111011 4
b0 5
b1001001 2
b111000000000000011100100000000001110100000000000111011 9
b0 %
b1001000 3
b10 +
b0 E
b1001 C
06
#41000000
0!
#41500000
b100 @
1F
b11 >
16
b110 G
b111100000000000011110100000000001111100000000000111111 I
b10010000000000001001001 )
1&
b11 A
1!
b111000000000000011100100000000001110100000000000111011 /
0*
b11 B
b100 =
b100 0
b110 H
b111100000000000011110100000000001111100000000000111111 4
b1001000000000000100100100000000010010100000000001001011 5
b1001011 2
b111100000000000011110100000000001111100000000000111111 9
b1001000000000000100100100000000010010100000000001001011 %
b1001010 3
b1001000000000000100100100000000010010100000000001001011 E
sEOF/2 ,
b100 ?
#42000000
0!
#42500000
0F
0-
b1010 D
06
b1001000000000000100100100000000010010100000000001001011 T
b111 G
b100 I
0&
1!
b111100000000000011110100000000001111100000000000111111 /
1*
b0 0
b111 H
b100 4
b0 5
b1001101 2
b100 9
b0 %
11
b1001100 3
b11 +
0:
b0 E
b1010 C
sLoading/0 ,
0J
#43000000
0!
#43500000
1F
b1001100000000000100110100000000010011100000000001001111 5
b1001111 2
b1001100000000000100110100000000010011100000000001001111 %
01
b1001110 3
0.
b10011000000000001001101 )
1&
b1001100000000000100110100000000010011100000000001001111 E
1!
b0 /
16
0*
#44000000
0!
#44500000
b101 @
b101 =
b1001100000000000100110100000000010011100000000001001111 U
b100 >
b1011 D
b101 5
b1010001 2
b101 %
b1010000 3
b100 +
b100 A
b101 E
1!
b101 ?
1*
b1011 C
b100 B
#45000000
0!
#45500000
b110 @
b101 >
1-
b1100 D
b10100000000000001010001 )
b101 A
1!
0*
b101 B
b101 V
b110 =
b101 (
b1010000000000000101000100000000010100100000000001010011 5
b1010011 2
b1010000000000000101000100000000010100100000000001010011 %
b1010010 3
b0 +
1:
b1010000000000000101000100000000010100100000000001010011 E
b1100 C
sDraining/1 ,
b110 ?
1J
#46000000
0!
#46500000
0F
b1101 D
b1000 G
1.
b1000000000000000100000100000000010000100000000001000011 I
0&
1!
b100 /
1*
b1 0
b1000 H
b1000000000000000100000100000000010000100000000001000011 4
b0 5
b1010101 2
b1000000000000000100000100000000010000100000000001000011 9
b0 %
b1010000000000000101000100000000010100100000000001010011 W
b1010100 3
b1 +
b0 E
b1101 C
06
#47000000
0!
#47500000
b101 @
1F
b100 >
b1001 G
b1000100000000000100010100000000010001100000000001000111 I
b10101000000000001010101 )
1&
b100 A
1!
b1000000000000000100000100000000010000100000000001000011 /
0*
b100 B
b101 =
b10 0
b1001 H
b1000100000000000100010100000000010001100000000001000111 4
b1010100000000000101010100000000010101100000000001010111 5
b1010111 2
b1000100000000000100010100000000010001100000000001000111 9
b1010100000000000101010100000000010101100000000001010111 %
b1010110 3
b1010100000000000101010100000000010101100000000001010111 E
16
b101 ?
#48000000
0!
#48500000
0F
b0 D
b1010 G
b1001000000000000100100100000000010010100000000001001011 I
0&
1!
b1000100000000000100010100000000010001100000000001000111 /
1*
b11 0
b1010 H
b1001000000000000100100100000000010010100000000001001011 4
b0 5
b1011001 2
b1001000000000000100100100000000010010100000000001001011 9
b0 %
b1011000 3
b10 +
b1010100000000000101010100000000010101100000000001010111 X
b0 E
b0 C
06
#49000000
0!
#49500000
b100 @
1F
b11 >
16
b1011 G
b1001100000000000100110100000000010011100000000001001111 I
b10110000000000001011001 )
1&
b11 A
1!
b1001000000000000100100100000000010010100000000001001011 /
0*
b11 B
b100 =
b100 0
b1011 H
b1001100000000000100110100000000010011100000000001001111 4
b1011000000000000101100100000000010110100000000001011011 5
b1011011 2
b1001100000000000100110100000000010011100000000001001111 9
b1011000000000000101100100000000010110100000000001011011 %
b1011010 3
b1011000000000000101100100000000010110100000000001011011 E
sEOF/2 ,
b100 ?
#50000000
0!
#50500000
0F
0-
b1 D
06
b1100 G
b101 I
0&
1!
b1001100000000000100110100000000010011100000000001001111 /
1*
b0 0
b1100 H
b101 4
b0 5
b1011101 2
b101 9
b0 %
11
b1011100 3
b11 +
0:
b0 E
b1 C
b1011000000000000101100100000000010110100000000001011011 K
sLoading/0 ,
0J
#51000000
0!
#51500000
1F
b1011100000000000101110100000000010111100000000001011111 5
b1011111 2
b1011100000000000101110100000000010111100000000001011111 %
01
b1011110 3
0.
b10111000000000001011101 )
1&
b1011100000000000101110100000000010111100000000001011111 E
1!
b0 /
16
0*
#52000000
0!
#52500000
b101 @
b101 =
b100 >
b10 D
b110 5
b1100001 2
b110 %
b1100000 3
b100 +
b1011100000000000101110100000000010111100000000001011111 L
b100 A
b110 E
1!
b101 ?
1*
b10 C
b100 B
#53000000
0!
#53500000
b110 @
b101 >
1-
b11 D
b110 M
b11000000000000001100001 )
b101 A
1!
0*
b101 B
b110 =
b110 (
b1100000000000000110000100000000011000100000000001100011 5
b1100011 2
b1100000000000000110000100000000011000100000000001100011 %
b1100010 3
b0 +
1:
b1100000000000000110000100000000011000100000000001100011 E
b11 C
sDraining/1 ,
b110 ?
1J
#54000000
0!
#54500000
0F
b100 D
b1101 G
1.
b1010000000000000101000100000000010100100000000001010011 I
b1100000000000000110000100000000011000100000000001100011 N
0&
1!
b101 /
1*
b1 0
b1101 H
b1010000000000000101000100000000010100100000000001010011 4
b0 5
b1100101 2
b1010000000000000101000100000000010100100000000001010011 9
b0 %
b1100100 3
b1 +
b0 E
b100 C
06
#55000000
0!
#55500000
b101 @
1F
b100 >
b0 G
b1010100000000000101010100000000010101100000000001010111 I
b11001000000000001100101 )
1&
b100 A
1!
b1010000000000000101000100000000010100100000000001010011 /
0*
b100 B
b101 =
b10 0
b0 H
b1010100000000000101010100000000010101100000000001010111 4
b1100100000000000110010100000000011001100000000001100111 5
b1100111 2
b1010100000000000101010100000000010101100000000001010111 9
b1100100000000000110010100000000011001100000000001100111 %
b1100110 3
b1100100000000000110010100000000011001100000000001100111 E
16
b101 ?
#56000000
0!
#56500000
0F
b101 D
b1 G
b1011000000000000101100100000000010110100000000001011011 I
0&
1!
b1010100000000000101010100000000010101100000000001010111 /
1*
b1100100000000000110010100000000011001100000000001100111 O
b11 0
b1 H
b1011000000000000101100100000000010110100000000001011011 4
b0 5
b1101001 2
b1011000000000000101100100000000010110100000000001011011 9
b0 %
b1101000 3
b10 +
b0 E
b101 C
06
#57000000
0!
#57500000
b100 @
1F
b11 >
16
b10 G
b1011100000000000101110100000000010111100000000001011111 I
b11010000000000001101001 )
1&
b11 A
1!
b1011000000000000101100100000000010110100000000001011011 /
0*
b11 B
b100 =
b100 0
b10 H
b1011100000000000101110100000000010111100000000001011111 4
b1101000000000000110100100000000011010100000000001101011 5
b1101011 2
b1011100000000000101110100000000010111100000000001011111 9
b1101000000000000110100100000000011010100000000001101011 %
b1101010 3
b1101000000000000110100100000000011010100000000001101011 E
sEOF/2 ,
b100 ?
#58000000
0!
#58500000
0F
0-
b110 D
06
b11 G
b110 I
0&
1!
b1011100000000000101110100000000010111100000000001011111 /
1*
b0 0
b11 H
b110 4
b0 5
b1101101 2
b110 9
b0 %
11
b1101100 3
b11 +
0:
b1101000000000000110100100000000011010100000000001101011 P
b0 E
b110 C
sLoading/0 ,
0J
#59000000
0!
#59500000
1F
b1101100000000000110110100000000011011100000000001101111 5
b1101111 2
b1101100000000000110110100000000011011100000000001101111 %
01
b1101110 3
0.
b11011000000000001101101 )
1&
b1101100000000000110110100000000011011100000000001101111 E
1!
b0 /
16
0*
#60000000
0!
#60500000
b101 @
b101 =
b100 >
b111 D
b111 5
b1110001 2
b111 %
b1110000 3
b1101100000000000110110100000000011011100000000001101111 Q
b100 +
b100 A
b111 E
1!
b101 ?
1*
b111 C
b100 B
#61000000
0!
#61500000
b110 @
b101 >
1-
b1000 D
b111 R
b11100000000000001110001 )
b101 A
1!
0*
b101 B
b110 =
b111 (
b1110000000000000111000100000000011100100000000001110011 5
b1110011 2
b1110000000000000111000100000000011100100000000001110011 %
b1110010 3
b0 +
1:
b1110000000000000111000100000000011100100000000001110011 E
b1000 C
sDraining/1 ,
b110 ?
1J
#62000000
0!
#62500000
0F
b1110000000000000111000100000000011100100000000001110011 S
b1001 D
b100 G
1.
b1100000000000000110000100000000011000100000000001100011 I
0&
1!
b110 /
1*
b1 0
b100 H
b1100000000000000110000100000000011000100000000001100011 4
b0 5
b1110101 2
b1100000000000000110000100000000011000100000000001100011 9
b0 %
b1110100 3
b1 +
b0 E
b1001 C
06
#63000000
0!
#63500000
b101 @
1F
b100 >
b101 G
b1100100000000000110010100000000011001100000000001100111 I
b11101000000000001110101 )
1&
b100 A
1!
b1100000000000000110000100000000011000100000000001100011 /
0*
b100 B
b101 =
b10 0
b101 H
b1100100000000000110010100000000011001100000000001100111 4
b1110100000000000111010100000000011101100000000001110111 5
b1110111 2
b1100100000000000110010100000000011001100000000001100111 9
b1110100000000000111010100000000011101100000000001110111 %
b1110110 3
b1110100000000000111010100000000011101100000000001110111 E
16
b101 ?
#64000000
0!
#64500000
0F
b1010 D
b1110100000000000111010100000000011101100000000001110111 T
b110 G
b1101000000000000110100100000000011010100000000001101011 I
0&
1!
b1100100000000000110010100000000011001100000000001100111 /
1*
b11 0
b110 H
b1101000000000000110100100000000011010100000000001101011 4
b0 5
b1111001 2
b1101000000000000110100100000000011010100000000001101011 9
b0 %
b1111000 3
b10 +
b0 E
b1010 C
06
#65000000
0!
#65500000
b100 @
1F
b11 >
16
b111 G
b1101100000000000110110100000000011011100000000001101111 I
b11110000000000001111001 )
1&
b11 A
1!
b1101000000000000110100100000000011010100000000001101011 /
0*
b11 B
b100 =
b100 0
b111 H
b1101100000000000110110100000000011011100000000001101111 4
b1111000000000000111100100000000011110100000000001111011 5
b1111011 2
b1101100000000000110110100000000011011100000000001101111 9
b1111000000000000111100100000000011110100000000001111011 %
b1111010 3
b1111000000000000111100100000000011110100000000001111011 E
sEOF/2 ,
b100 ?
#66000000
0!
#66500000
0F
0-
b1011 D
06
b1000 G
b111 I
0&
b1111000000000000111100100000000011110100000000001111011 U
1!
b1101100000000000110110100000000011011100000000001101111 /
1*
b0 0
b1000 H
b111 4
b0 5
b1111101 2
b111 9
b0 %
11
b1111100 3
b11 +
0:
b0 E
b1011 C
sLoading/0 ,
0J
#67000000
0!
#67500000
1F
b1111100000000000111110100000000011111100000000001111111 5
b1111111 2
b1111100000000000111110100000000011111100000000001111111 %
01
b1111110 3
0.
b11111000000000001111101 )
1&
b1111100000000000111110100000000011111100000000001111111 E
1!
b0 /
16
0*
#68000000
0!
#68500000
b101 @
b1111100000000000111110100000000011111100000000001111111 V
b101 =
b100 >
b1100 D
b1000 5
b10000001 2
b1000 %
b10000000 3
b100 +
b100 A
b1000 E
1!
b101 ?
1*
b1100 C
b100 B
#69000000
0!
#69500000
b110 @
b101 >
1-
b1101 D
b100000000000000010000001 )
b101 A
1!
0*
b101 B
b110 =
b1000 (
b10000000000000001000000100000000100000100000000010000011 5
b10000011 2
b10000000000000001000000100000000100000100000000010000011 %
b1000 W
b10000010 3
b0 +
1:
b10000000000000001000000100000000100000100000000010000011 E
b1101 C
sDraining/1 ,
b110 ?
1J
#70000000
0!
#70500000
0F
b0 D
b1001 G
1.
b1110000000000000111000100000000011100100000000001110011 I
0&
1!
b111 /
1*
b1 0
b1001 H
b1110000000000000111000100000000011100100000000001110011 4
b0 5
b10000101 2
b1110000000000000111000100000000011100100000000001110011 9
b0 %
b10000100 3
b1 +
b10000000000000001000000100000000100000100000000010000011 X
b0 E
b0 C
06
#71000000
0!
#71500000
b101 @
1F
b100 >
b1010 G
b1110100000000000111010100000000011101100000000001110111 I
b100001000000000010000101 )
1&
b100 A
1!
b1110000000000000111000100000000011100100000000001110011 /
0*
b100 B
b101 =
b10 0
b1010 H
b1110100000000000111010100000000011101100000000001110111 4
b10000100000000001000010100000000100001100000000010000111 5
b10000111 2
b1110100000000000111010100000000011101100000000001110111 9
b10000100000000001000010100000000100001100000000010000111 %
b10000110 3
b10000100000000001000010100000000100001100000000010000111 E
16
b101 ?
#72000000
0!
#72500000
0F
b1 D
b1011 G
b1111000000000000111100100000000011110100000000001111011 I
0&
1!
b1110100000000000111010100000000011101100000000001110111 /
1*
b11 0
b1011 H
b1111000000000000111100100000000011110100000000001111011 4
b0 5
b10001001 2
b1111000000000000111100100000000011110100000000001111011 9
b0 %
b10001000 3
b10 +
b0 E
b1 C
b10000100000000001000010100000000100001100000000010000111 K
06
#73000000
0!
#73500000
b100 @
1F
b11 >
16
b1100 G
b1111100000000000111110100000000011111100000000001111111 I
b100010000000000010001001 )
1&
b11 A
1!
b1111000000000000111100100000000011110100000000001111011 /
0*
b11 B
b100 =
b100 0
b1100 H
b1111100000000000111110100000000011111100000000001111111 4
b10001000000000001000100100000000100010100000000010001011 5
b10001011 2
b1111100000000000111110100000000011111100000000001111111 9
b10001000000000001000100100000000100010100000000010001011 %
b10001010 3
b10001000000000001000100100000000100010100000000010001011 E
sEOF/2 ,
b100 ?
#74000000
0!
#74500000
0F
0-
b10 D
06
b1101 G
b1000 I
0&
1!
b1111100000000000111110100000000011111100000000001111111 /
1*
b0 0
b1101 H
b1000 4
b0 5
b10001101 2
b1000 9
b0 %
11
b10001100 3
b11 +
0:
b10001000000000001000100100000000100010100000000010001011 L
b0 E
b10 C
sLoading/0 ,
0J
#75000000
0!
