hdl/artifacts/requant.vcd
$comment Generated by Amaranth $end
$date 2022-11-02 13:54:59.770539 $end
$timescale 1 ps $end
$scope module bench $end
$scope module top $end
$var wire 1 ! clk $end
$var wire 1 " rst $end
$var string 1 # state $end
$var wire 1 $ sync_out $end
$var wire 2 % chan_count $end
$var wire 2 & addr $end
$var wire 16 ' input $end
$var wire 5 ( gain $end
$var wire 8 ) inter_re $end
$var wire 8 * inter_im $end
$var wire 8 + output $end
$var wire 1 , overflow $end
$var wire 1 - ce $end
$var wire 1 . arm $end
$var wire 1 / sync_in $end
$var wire 16 0 input$1 $end
$var wire 5 1 gain$1 $end
$var wire 8 2 re $end
$var wire 8 3 im $end
$var wire 1 4 im_overflow $end
$var wire 1 5 re_overflow $end
$scope module cm $end
$var wire 16 ' input $end
$var wire 5 ( gain $end
$var wire 8 2 re $end
$var wire 8 3 im $end
$var wire 1 4 im_overflow $end
$var wire 1 5 re_overflow $end
$var wire 16 6 input$1 $end
$var wire 13 7 im_gain $end
$var wire 8 8 im$1 $end
$var wire 13 9 re_gain $end
$var wire 8 : re$1 $end
$scope module unpack $end
$var wire 16 6 input $end
$var wire 8 8 im $end
$var wire 8 : re $end
$upscope $end
$upscope $end
$upscope $end
$upscope $end
$enddefinitions $end
#0
$dumpvars
0!
0"
sWaitArm/0 #
0$
b0 %
b0 &
b0 '
b0 (
b0 )
b0 *
b0 +
0,
0-
0.
0/
b0 0
b0 1
b0 2
b0 3
04
05
b0 6
b0 7
b0 8
b0 9
b0 :
$end
#500000
1.
1-
1!
#1000000
0!
#1500000
1/
0.
1!
sWaitSync/1 #
#2000000
0!
#2500000
b10000 )
b10000 (
b100000001 '
sRunning/2 #
0/
b10000 3
b10000 7
b100000001 6
1!
b1 8
b10000 2
b1 :
b10000 9
1$
b10000 1
b10000 *
b100000001 0
#3000000
0!
#3500000
b1 %
b1 &
b11111110 3
1!
b11111110 8
b1111111111110 9
b11111110 )
b1 (
b1111111011111110 '
b1111111111110 7
b1111111011111110 6
b10001 +
b11111110 2
b11111110 :
0$
b1 1
b11111110 *
b1111111011111110 0
#4000000
0!
#4500000
b10 %
b10 &
b10000000 3
1!
b10000000 8
b11000000 9
b1111111 )
b11 (
b100000010000000 '
14
b1111010000000 7
b100000010000000 6
15
b11111111 +
b1111111 2
b1000000 :
b11 1
b10000000 *
b100000010000000 0
#5000000
0!
#5500000
b11 %
b1111000 +
1!
b11 &
1,
#6000000
0!
#6500000
b0 %
b0 &
1!
